Chap11_1
…
Tasmania
East Coast, Hobart and the South, Launceston Tamar and the North, North West, Wilderness West.

Victoria
Ballarat, Bendigo Loddon, Central Highlands, Central Murray, Geelong and the Bellarine, Gippsland, Goulburn, Great Ocean Road, High Country, Lakes, Macedon, Mallee, Melbourne, Melbourne East, Murray East, Peninsula, Phillip Island, Spa Country, Upper Yarra, Western Grampians, Wimmera.

Western Australia
Australias Coral Coast, Australias Golden Outback, Australias North West, Australias South West, Experience Perth.

tourism(tsibble  data)                .

tourism

## # A tsibble: 24,320 x 5 [1Q]
## # Key:       Region, State, Purpose [304]
##    Quarter Region   State           Purpose  Trips
##      <qtr> <chr>    <chr>           <chr>    <dbl>
##  1 1998 Q1 Adelaide South Australia Business  135.
##  2 1998 Q2 Adelaide South Australia Business  110.
##  3 1998 Q3 Adelaide South Australia Business  166.
##  4 1998 Q4 Adelaide South Australia Business  127.
##  5 1999 Q1 Adelaide South Australia Business  137.
##  6 1999 Q2 Adelaide South Australia Business  200.
##  7 1999 Q3 Adelaide South Australia Business  169.
##  8 1999 Q4 Adelaide South Australia Business  134.
##  9 2000 Q1 Adelaide South Australia Business  154.
## 10 2000 Q2 Adelaide South Australia Business  169.
## # ... with 24,310 more rows
…
tourism <- 
    tourism %>% 
    mutate(State = recode(State,
                          `New South Wales` = "NSW",
                          `Northern Territory` = "NT",
                          `Queensland` = "QLD",
                          `South Australia` = "SA",
                          `Tasmania` = "TAS",
                          `Victoria` = "VIC",
                          `Western Australia` = "WA"
    ))

tourism

## # A tsibble: 24,320 x 5 [1Q]
## # Key:       Region, State, Purpose [304]
##    Quarter Region   State Purpose  Trips
##      <qtr> <chr>    <chr> <chr>    <dbl>
##  1 1998 Q1 Adelaide SA    Business  135.
##  2 1998 Q2 Adelaide SA    Business  110.
##  3 1998 Q3 Adelaide SA    Business  166.
##  4 1998 Q4 Adelaide SA    Business  127.
##  5 1999 Q1 Adelaide SA    Business  137.
##  6 1999 Q2 Adelaide SA    Business  200.
##  7 1999 Q3 Adelaide SA    Business  169.
##  8 1999 Q4 Adelaide SA    Business  134.
##  9 2000 Q1 Adelaide SA    Business  154.
## 10 2000 Q2 Adelaide SA    Business  169.
## # ... with 24,310 more rows

fabletools::aggregate_key()         (overnight trips)      ,   ,     .

   aggregate_key()  parent/child    .

tourism_hts <- 
    tourism %>% 
    aggregate_key(State / Region, Trips = sum(Trips))

tourism_hts

## # A tsibble: 6,800 x 4 [1Q]
## # Key:       State, Region [85]
##    Quarter State        Region        Trips
##      <qtr> <chr*>       <chr*>        <dbl>
##  1 1998 Q1 <aggregated> <aggregated> 23182.
##  2 1998 Q2 <aggregated> <aggregated> 20323.
##  3 1998 Q3 <aggregated> <aggregated> 19827.
##  4 1998 Q4 <aggregated> <aggregated> 20830.
##  5 1999 Q1 <aggregated> <aggregated> 22087.
##  6 1999 Q2 <aggregated> <aggregated> 21458.
##  7 1999 Q3 <aggregated> <aggregated> 19914.
##  8 1999 Q4 <aggregated> <aggregated> 20028.
##  9 2000 Q1 <aggregated> <aggregated> 22339.
## 10 2000 Q2 <aggregated> <aggregated> 19941.
## # ... with 6,790 more rows
…
## Rows: 3072 Columns: 6

## -- Column specification --------------------------------------------------------
## Delimiter: ","
## chr  (4): State, Gender, Legal, Indigenous
## dbl  (1): Count
## date (1): Date

## 
## i Use `spec()` to retrieve the full column specification for this data.
## i Specify the column types or set `show_col_types = FALSE` to quiet this message.

prison

## # A tsibble: 3,072 x 6 [1Q]
## # Key:       State, Gender, Legal, Indigenous [64]
##    Quarter State Gender Legal    Indigenous Count
##      <qtr> <chr> <chr>  <chr>    <chr>      <dbl>
##  1 2005 Q1 ACT   Female Remanded ATSI           0
##  2 2005 Q2 ACT   Female Remanded ATSI           1
##  3 2005 Q3 ACT   Female Remanded ATSI           0
##  4 2005 Q4 ACT   Female Remanded ATSI           0
##  5 2006 Q1 ACT   Female Remanded ATSI           1
##  6 2006 Q2 ACT   Female Remanded ATSI           1
##  7 2006 Q3 ACT   Female Remanded ATSI           1
##  8 2006 Q4 ACT   Female Remanded ATSI           0
##  9 2007 Q1 ACT   Female Remanded ATSI           0
## 10 2007 Q2 ACT   Female Remanded ATSI           1
## # ... with 3,062 more rows

aggregate_key()      .

   attribute1 * attribute2     .

 (State), (Gender), (Legal)     .

prison_gts <-  
    prison %>% aggregate_key(State * Gender * Legal, Count = sum(Count) / 1e3)

prison_gts

## # A tsibble: 3,888 x 5 [1Q]
## # Key:       State, Gender, Legal [81]
##    Quarter State        Gender       Legal        Count
##      <qtr> <chr*>       <chr*>       <chr*>       <dbl>
##  1 2005 Q1 <aggregated> <aggregated> <aggregated>  24.3
##  2 2005 Q2 <aggregated> <aggregated> <aggregated>  24.6
##  3 2005 Q3 <aggregated> <aggregated> <aggregated>  24.5
##  4 2005 Q4 <aggregated> <aggregated> <aggregated>  24.4
##  5 2006 Q1 <aggregated> <aggregated> <aggregated>  24.5
##  6 2006 Q2 <aggregated> <aggregated> <aggregated>  25.0
##  7 2006 Q3 <aggregated> <aggregated> <aggregated>  25.4
##  8 2006 Q4 <aggregated> <aggregated> <aggregated>  25.9
##  9 2007 Q1 <aggregated> <aggregated> <aggregated>  25.9
## 10 2007 Q2 <aggregated> <aggregated> <aggregated>  26.5
## # ... with 3,878 more rows
…
       .

,   ,  ,           .

          .

aggregate_key()           .

tourism_full <- 
    tourism %>%
    aggregate_key((State/Region) * Purpose, Trips = sum(Trips))

tourism_full

## # A tsibble: 34,000 x 5 [1Q]
## # Key:       State, Purpose, Region [425]
##    Quarter State        Purpose      Region        Trips
##      <qtr> <chr*>       <chr*>       <chr*>        <dbl>
##  1 1998 Q1 <aggregated> <aggregated> <aggregated> 23182.
##  2 1998 Q2 <aggregated> <aggregated> <aggregated> 20323.
##  3 1998 Q3 <aggregated> <aggregated> <aggregated> 19827.
##  4 1998 Q4 <aggregated> <aggregated> <aggregated> 20830.
##  5 1999 Q1 <aggregated> <aggregated> <aggregated> 22087.
##  6 1999 Q2 <aggregated> <aggregated> <aggregated> 21458.
##  7 1999 Q3 <aggregated> <aggregated> <aggregated> 19914.
##  8 1999 Q4 <aggregated> <aggregated> <aggregated> 20028.
##  9 2000 Q1 <aggregated> <aggregated> <aggregated> 22339.
## 10 2000 Q2 <aggregated> <aggregated> <aggregated> 19941.
## # ... with 33,990 more rows

aggregate_key()  State Region parent/child       Purpose   .

tourism_full %>% 
    filter(!is_aggregated(Region), !is_aggregated(Purpose))

## # A tsibble: 24,320 x 5 [1Q]
## # Key:       State, Purpose, Region [304]
##    Quarter State  Purpose  Region           Trips
##      <qtr> <chr*> <chr*>   <chr*>           <dbl>
##  1 1998 Q1 ACT    Business Canberra        150.  
##  2 1998 Q1 ACT    Holiday  Canberra        196.  
##  3 1998 Q1 ACT    Other    Canberra         21.7 
##  4 1998 Q1 ACT    Visiting Canberra        183.  
##  5 1998 Q1 NSW    Business Blue Mountains   18.8 
##  6 1998 Q1 NSW    Holiday  Blue Mountains  104.  
##  7 1998 Q1 NSW    Other    Blue Mountains    2.48
##  8 1998 Q1 NSW    Visiting Blue Mountains   70.5 
##  9 1998 Q1 NSW    Business Capital Country  42.7 
## 10 1998 Q1 NSW    Holiday  Capital Country  99.2 
## # ... with 24,310 more rows

aggregate_key()      304

tourism_full %>% 
    filter(!is_aggregated(Region), is_aggregated(Purpose))

## # A tsibble: 6,080 x 5 [1Q]
## # Key:       State, Purpose, Region [76]
##    Quarter State  Purpose      Region                  Trips
##      <qtr> <chr*> <chr*>       <chr*>                  <dbl>
##  1 1998 Q1 ACT    <aggregated> Canberra                551. 
##  2 1998 Q1 NSW    <aggregated> Blue Mountains          196. 
##  3 1998 Q1 NSW    <aggregated> Capital Country         262. 
##  4 1998 Q1 NSW    <aggregated> Central Coast           455. 
##  5 1998 Q1 NSW    <aggregated> Central NSW             424. 
##  6 1998 Q1 NSW    <aggregated> Hunter                  675. 
##  7 1998 Q1 NSW    <aggregated> New England North West  330. 
##  8 1998 Q1 NSW    <aggregated> North Coast NSW        1342. 
##  9 1998 Q1 NSW    <aggregated> Outback NSW              96.6
## 10 1998 Q1 NSW    <aggregated> Riverina                215. 
## # ... with 6,070 more rows
…
  (=     )  76

tourism_full %>% 
    filter(is_aggregated(Region), !is_aggregated(Purpose))

## # A tsibble: 2,880 x 5 [1Q]
## # Key:       State, Purpose, Region [36]
##    Quarter State        Purpose  Region        Trips
##      <qtr> <chr*>       <chr*>   <chr*>        <dbl>
##  1 1998 Q1 <aggregated> Business <aggregated>  3599.
##  2 1998 Q1 <aggregated> Holiday  <aggregated> 11806.
##  3 1998 Q1 <aggregated> Other    <aggregated>   680.
##  4 1998 Q1 <aggregated> Visiting <aggregated>  7098.
##  5 1998 Q2 <aggregated> Business <aggregated>  3724.
##  6 1998 Q2 <aggregated> Holiday  <aggregated>  9276.
##  7 1998 Q2 <aggregated> Other    <aggregated>   656.
##  8 1998 Q2 <aggregated> Visiting <aggregated>  6668.
##  9 1998 Q3 <aggregated> Business <aggregated>  4356.
## 10 1998 Q3 <aggregated> Holiday  <aggregated>  8642.
## # ... with 2,870 more rows
…
     36

tourism_full %>% 
    filter(is_aggregated(Region), is_aggregated(Purpose))

## # A tsibble: 720 x 5 [1Q]
## # Key:       State, Purpose, Region [9]
##    Quarter State        Purpose      Region        Trips
##      <qtr> <chr*>       <chr*>       <chr*>        <dbl>
##  1 1998 Q1 <aggregated> <aggregated> <aggregated> 23182.
##  2 1998 Q2 <aggregated> <aggregated> <aggregated> 20323.
##  3 1998 Q3 <aggregated> <aggregated> <aggregated> 19827.
##  4 1998 Q4 <aggregated> <aggregated> <aggregated> 20830.
##  5 1999 Q1 <aggregated> <aggregated> <aggregated> 22087.
##  6 1999 Q2 <aggregated> <aggregated> <aggregated> 21458.
##  7 1999 Q3 <aggregated> <aggregated> <aggregated> 19914.
##  8 1999 Q4 <aggregated> <aggregated> <aggregated> 20028.
##  9 2000 Q1 <aggregated> <aggregated> <aggregated> 22339.
## 10 2000 Q2 <aggregated> <aggregated> <aggregated> 19941.
## # ... with 710 more rows
…
